%YAML 1.1
%TAG !u! tag:unity3d.com,2011:
--- !u!221 &22100000
AnimatorOverrideController:
  m_ObjectHideFlags: 0
  m_CorrespondingSourceObject: {fileID: 0}
  m_PrefabInstance: {fileID: 0}
  m_PrefabAsset: {fileID: 0}
  m_Name: avt4
  m_Controller: {fileID: 9100000, guid: ebc530f6288c04d12a4388902bc1f0db, type: 2}
  m_Clips:
  - m_OriginalClip: {fileID: 7400000, guid: f4400463b94124139992e84463559c5c, type: 2}
    m_OverrideClip: {fileID: 7400000, guid: a2d19cdff758e4ba7a409ba58b584040, type: 2}
  - m_OriginalClip: {fileID: 7400000, guid: a80cea4c2e1e9426dbd19f75a8afd264, type: 2}
    m_OverrideClip: {fileID: 7400000, guid: 04c6456ce281d4cb0bcd39309f492318, type: 2}
  - m_OriginalClip: {fileID: 7400000, guid: 78b597169c2454650a35b615ca5f372d, type: 2}
    m_OverrideClip: {fileID: 7400000, guid: 3f37efd1775ed4b7f8d99d4e28b5f238, type: 2}
  - m_OriginalClip: {fileID: 7400000, guid: 37a1c0a6b31ad47a3947caff38b0c605, type: 2}
    m_OverrideClip: {fileID: 7400000, guid: faec5823df76b4cafab37eede88b93b7, type: 2}
