%YAML 1.1
%TAG !u! tag:unity3d.com,2011:
--- !u!221 &22100000
AnimatorOverrideController:
  m_ObjectHideFlags: 0
  m_CorrespondingSourceObject: {fileID: 0}
  m_PrefabInstance: {fileID: 0}
  m_PrefabAsset: {fileID: 0}
  m_Name: ftr1
  m_Controller: {fileID: 9100000, guid: ebc530f6288c04d12a4388902bc1f0db, type: 2}
  m_Clips:
  - m_OriginalClip: {fileID: 7400000, guid: f4400463b94124139992e84463559c5c, type: 2}
    m_OverrideClip: {fileID: 7400000, guid: 7c03c2b9556f5457ebcb9deaa6b1a4a3, type: 2}
  - m_OriginalClip: {fileID: 7400000, guid: a80cea4c2e1e9426dbd19f75a8afd264, type: 2}
    m_OverrideClip: {fileID: 7400000, guid: a78ba6c1e329b4bdfa45f809101afe96, type: 2}
  - m_OriginalClip: {fileID: 7400000, guid: 78b597169c2454650a35b615ca5f372d, type: 2}
    m_OverrideClip: {fileID: 7400000, guid: 16f1ae1c73cdb498f83bbef4d982f700, type: 2}
  - m_OriginalClip: {fileID: 7400000, guid: 37a1c0a6b31ad47a3947caff38b0c605, type: 2}
    m_OverrideClip: {fileID: 7400000, guid: d337d5613f6014cf885deb0039c990d1, type: 2}
