%YAML 1.1
%TAG !u! tag:unity3d.com,2011:
--- !u!221 &22100000
AnimatorOverrideController:
  m_ObjectHideFlags: 0
  m_CorrespondingSourceObject: {fileID: 0}
  m_PrefabInstance: {fileID: 0}
  m_PrefabAsset: {fileID: 0}
  m_Name: ftr3
  m_Controller: {fileID: 9100000, guid: ebc530f6288c04d12a4388902bc1f0db, type: 2}
  m_Clips:
  - m_OriginalClip: {fileID: 7400000, guid: f4400463b94124139992e84463559c5c, type: 2}
    m_OverrideClip: {fileID: 7400000, guid: 08dd9db37b6704b1c9dd2e31d7489fcc, type: 2}
  - m_OriginalClip: {fileID: 7400000, guid: a80cea4c2e1e9426dbd19f75a8afd264, type: 2}
    m_OverrideClip: {fileID: 7400000, guid: 503cd854e1a474c3ab3558812cd41e23, type: 2}
  - m_OriginalClip: {fileID: 7400000, guid: 78b597169c2454650a35b615ca5f372d, type: 2}
    m_OverrideClip: {fileID: 7400000, guid: 889cbf7d4bcc44248bfe52a47c6f5d4f, type: 2}
  - m_OriginalClip: {fileID: 7400000, guid: 37a1c0a6b31ad47a3947caff38b0c605, type: 2}
    m_OverrideClip: {fileID: 7400000, guid: 3984d6bf449934b5b826503c3317b4f0, type: 2}
