%YAML 1.1
%TAG !u! tag:unity3d.com,2011:
--- !u!221 &22100000
AnimatorOverrideController:
  m_ObjectHideFlags: 0
  m_CorrespondingSourceObject: {fileID: 0}
  m_PrefabInstance: {fileID: 0}
  m_PrefabAsset: {fileID: 0}
  m_Name: mst1
  m_Controller: {fileID: 9100000, guid: ebc530f6288c04d12a4388902bc1f0db, type: 2}
  m_Clips:
  - m_OriginalClip: {fileID: 7400000, guid: f4400463b94124139992e84463559c5c, type: 2}
    m_OverrideClip: {fileID: 7400000, guid: 57961b518a9614469be9cff1e9d89b53, type: 2}
  - m_OriginalClip: {fileID: 7400000, guid: a80cea4c2e1e9426dbd19f75a8afd264, type: 2}
    m_OverrideClip: {fileID: 7400000, guid: 3435e58234b7440adb1951d763499bbb, type: 2}
  - m_OriginalClip: {fileID: 7400000, guid: 78b597169c2454650a35b615ca5f372d, type: 2}
    m_OverrideClip: {fileID: 7400000, guid: 1c20b54f7c78c4994bc1abfd9e41c9ef, type: 2}
  - m_OriginalClip: {fileID: 7400000, guid: 37a1c0a6b31ad47a3947caff38b0c605, type: 2}
    m_OverrideClip: {fileID: 7400000, guid: 3d3a0520e4a3d426fa5cc65e9193ddf0, type: 2}
