%YAML 1.1
%TAG !u! tag:unity3d.com,2011:
--- !u!221 &22100000
AnimatorOverrideController:
  m_ObjectHideFlags: 0
  m_CorrespondingSourceObject: {fileID: 0}
  m_PrefabInstance: {fileID: 0}
  m_PrefabAsset: {fileID: 0}
  m_Name: smr4
  m_Controller: {fileID: 9100000, guid: ebc530f6288c04d12a4388902bc1f0db, type: 2}
  m_Clips:
  - m_OriginalClip: {fileID: 7400000, guid: f4400463b94124139992e84463559c5c, type: 2}
    m_OverrideClip: {fileID: 7400000, guid: e6de16dbb320e4f55bba25b4232d5299, type: 2}
  - m_OriginalClip: {fileID: 7400000, guid: a80cea4c2e1e9426dbd19f75a8afd264, type: 2}
    m_OverrideClip: {fileID: 7400000, guid: 7a487e8021fcf427fb27a3a50f108ba8, type: 2}
  - m_OriginalClip: {fileID: 7400000, guid: 78b597169c2454650a35b615ca5f372d, type: 2}
    m_OverrideClip: {fileID: 7400000, guid: e289b2ce2f6a548c491fee2552ba4338, type: 2}
  - m_OriginalClip: {fileID: 7400000, guid: 37a1c0a6b31ad47a3947caff38b0c605, type: 2}
    m_OverrideClip: {fileID: 7400000, guid: 27803692aeb8848a29891dd5599cc4d1, type: 2}
