%YAML 1.1
%TAG !u! tag:unity3d.com,2011:
--- !u!114 &11400000
MonoBehaviour:
  m_ObjectHideFlags: 0
  m_CorrespondingSourceObject: {fileID: 0}
  m_PrefabInstance: {fileID: 0}
  m_PrefabAsset: {fileID: 0}
  m_GameObject: {fileID: 0}
  m_Enabled: 1
  m_EditorHideFlags: 0
  m_Script: {fileID: 11500000, guid: 584b38d2bcaf14af59fe03b5a083344e, type: 3}
  m_Name: LevelDatabase
  m_EditorClassIdentifier: 
  levelDefinitions:
  - id: Level 2
    level: {fileID: 114118683427581674, guid: 90f6d497e7a4b48799ce64c6f5c65689, type: 3}
  - id: Level 3
    level: {fileID: 3947671198162724580, guid: 3e90c36349b0742ada0b3adf024a2d5d, type: 3}
  - id: Level 4
    level: {fileID: 5140202256527364910, guid: 768779489f5864b678ff884cb7bf7881, type: 3}
  - id: TopDownLevel
    level: {fileID: 3167102994192057507, guid: 0ae4abf53b0ca40da9e2f60bdaad0218, type: 3}
