%YAML 1.1
%TAG !u! tag:unity3d.com,2011:
--- !u!114 &11400000
MonoBehaviour:
  m_ObjectHideFlags: 0
  m_CorrespondingSourceObject: {fileID: 0}
  m_PrefabInstance: {fileID: 0}
  m_PrefabAsset: {fileID: 0}
  m_GameObject: {fileID: 0}
  m_Enabled: 1
  m_EditorHideFlags: 0
  m_Script: {fileID: 11500000, guid: fdbead17f0c294f70b2d3631d3ab11db, type: 3}
  m_Name: ObstacleDatabase
  m_EditorClassIdentifier: 
  piecePrefab: {fileID: 1439725042347408670, guid: f9356f895dc3a456cb7f3d16ddbb784b,
    type: 3}
  _obstacleDefinitions:
  - obstacleType: Boulder
    health: 1
    sprite: {fileID: 0}
